[
  {
    "id": "6015559470583",
    "name": "Expats (All)",
    "description": "Expats (All)",
    "path": [
      "Expats",
      "Expats (All)"
    ],
    "audience_size": 600000
  },
  {
    "id": "6016916298983",
    "name": "Expats (India)",
    "description": "Expats (India)",
    "path": [
      "Expats",
      "Expats (India)"
    ],
    "audience_size": 16000
  },
  {
    "id": "6018796980983",
    "name": "Expats (Kenya)",
    "description": "Expats (Kenya)",
    "path": [
      "Expats",
      "Expats (Kenya)"
    ],
    "audience_size": 1400
  },
  {
    "id": "6018797004183",
    "name": "Expats (Nigeria)",
    "description": "Expats (Nigeria)",
    "path": [
      "Expats",
      "Expats (Nigeria)"
    ],
    "audience_size": 4200
  },
  {
    "id": "6018797036783",
    "name": "Expats (Cameroon)",
    "description": "Expats (Cameroon)",
    "path": [
      "Expats",
      "Expats (Cameroon)"
    ],
    "audience_size": 1000
  },
  {
    "id": "6018797091183",
    "name": "Expats (Philippines)",
    "description": "Expats (Philippines)",
    "path": [
      "Expats",
      "Expats (Philippines)"
    ],
    "audience_size": 13000
  },
  {
    "id": "6018797127383",
    "name": "Expats (Cuba)",
    "description": "Expats (Cuba)",
    "path": [
      "Expats",
      "Expats (Cuba)"
    ],
    "audience_size": 1000
  },
  {
    "id": "6018797165983",
    "name": "Expats (Ethiopia)",
    "description": "Expats (Ethiopia)",
    "path": [
      "Expats",
      "Expats (Ethiopia)"
    ],
    "audience_size": 1000
  },
  {
    "id": "6018797373783",
    "name": "Expats (Haiti)",
    "description": "Expats (Haiti)",
    "path": [
      "Expats",
      "Expats (Haiti)"
    ],
    "audience_size": 1000
  },
  {
    "id": "6019366943583",
    "name": "Expats (Spain)",
    "description": "Expats (Spain)",
    "path": [
      "Expats",
      "Expats (Spain)"
    ],
    "audience_size": 23000
  },
  {
    "id": "6019367014383",
    "name": "Expats (France)",
    "description": "Expats (France)",
    "path": [
      "Expats",
      "Expats (France)"
    ],
    "audience_size": 17000
  },
  {
    "id": "6019367052983",
    "name": "Expats (Germany)",
    "description": "Expats (Germany)",
    "path": [
      "Expats",
      "Expats (Germany)"
    ],
    "audience_size": 18000
  },
  {
    "id": "6019377644783",
    "name": "Expats (Switzerland)",
    "description": "Expats (Switzerland)",
    "path": [
      "Expats",
      "Expats (Switzerland)"
    ],
    "audience_size": 1600
  },
  {
    "id": "6019396649183",
    "name": "Expats (United States)",
    "description": "Expats (United States)",
    "path": [
      "Expats",
      "Expats (United States)"
    ],
    "audience_size": 69000
  },
  {
    "id": "6019396657183",
    "name": "Expats (Poland)",
    "description": "Expats (Poland)",
    "path": [
      "Expats",
      "Expats (Poland)"
    ],
    "audience_size": 2800
  },
  {
    "id": "6019396654583",
    "name": "Expats (Italy)",
    "description": "Expats (Italy)",
    "path": [
      "Expats",
      "Expats (Italy)"
    ],
    "audience_size": 44000
  },
  {
    "id": "6019396650783",
    "name": "Expats (Ireland)",
    "description": "Expats (Ireland)",
    "path": [
      "Expats",
      "Expats (Ireland)"
    ],
    "audience_size": 1400
  },
  {
    "id": "6019396638383",
    "name": "Expats (Hungary)",
    "description": "Expats (Hungary)",
    "path": [
      "Expats",
      "Expats (Hungary)"
    ],
    "audience_size": 16000
  },
  {
    "id": "6019396764183",
    "name": "Expats (Canada)",
    "description": "Expats (Canada)",
    "path": [
      "Expats",
      "Expats (Canada)"
    ],
    "audience_size": 3000
  },
  {
    "id": "6019452369983",
    "name": "Expats (China)",
    "description": "Expats (China)",
    "path": [
      "Expats",
      "Expats (China)"
    ],
    "audience_size": 2200
  },
  {
    "id": "6019520122583",
    "name": "Expats (Puerto Rico)",
    "description": "Expats (Puerto Rico)",
    "path": [
      "Expats",
      "Expats (Puerto Rico)"
    ],
    "audience_size": 1000
  },
  {
    "id": "6019564340583",
    "name": "Expats (Brazil)",
    "description": "Expats (Brazil)",
    "path": [
      "Expats",
      "Expats (Brazil)"
    ],
    "audience_size": 26000
  },
  {
    "id": "6019564344583",
    "name": "Expats (Indonesia)",
    "description": "Expats (Indonesia)",
    "path": [
      "Expats",
      "Expats (Indonesia)"
    ],
    "audience_size": 13000
  },
  {
    "id": "6019564383383",
    "name": "Expats (South Africa)",
    "description": "Expats (South Africa)",
    "path": [
      "Expats",
      "Expats (South Africa)"
    ],
    "audience_size": 2400
  },
  {
    "id": "6019673233983",
    "name": "Expats (Zimbabwe)",
    "description": "Expats (Zimbabwe)",
    "path": [
      "Expats",
      "Expats (Zimbabwe)"
    ],
    "audience_size": 1000
  },
  {
    "id": "6019673448383",
    "name": "Expats (Ghana)",
    "description": "Expats (Ghana)",
    "path": [
      "Expats",
      "Expats (Ghana)"
    ],
    "audience_size": 1900
  },
  {
    "id": "6019673501783",
    "name": "Expats (Uganda)",
    "description": "Expats (Uganda)",
    "path": [
      "Expats",
      "Expats (Uganda)"
    ],
    "audience_size": 1000
  },
  {
    "id": "6019673525983",
    "name": "Expats (Colombia)",
    "description": "Expats (Colombia)",
    "path": [
      "Expats",
      "Expats (Colombia)"
    ],
    "audience_size": 4100
  },
  {
    "id": "6019673762183",
    "name": "Expats (Dominican Republic)",
    "description": "Expats (Dominican Republic)",
    "path": [
      "Expats",
      "Expats (Dominican Republic)"
    ],
    "audience_size": 1700
  },
  {
    "id": "6019673777983",
    "name": "Expats (El Salvador)",
    "description": "Expats (El Salvador)",
    "path": [
      "Expats",
      "Expats (El Salvador)"
    ],
    "audience_size": 1000
  },
  {
    "id": "6019673808383",
    "name": "Expats (Guatemala)",
    "description": "Expats (Guatemala)",
    "path": [
      "Expats",
      "Expats (Guatemala)"
    ],
    "audience_size": 1000
  },
  {
    "id": "6021354152983",
    "name": "Expats (United Kingdom)",
    "description": "Expats (United Kingdom)",
    "path": [
      "Expats",
      "Expats (United Kingdom)"
    ],
    "audience_size": 23000
  },
  {
    "id": "6021354857783",
    "name": "Expats (Australia)",
    "description": "Expats (Australia)",
    "path": [
      "Expats",
      "Expats (Australia)"
    ],
    "audience_size": 2300
  },
  {
    "id": "6021354882783",
    "name": "Expats (Portugal)",
    "description": "Expats (Portugal)",
    "path": [
      "Expats",
      "Expats (Portugal)"
    ],
    "audience_size": 2600
  },
  {
    "id": "6023287351383",
    "name": "Expats (Estonia)",
    "description": "Expats (Estonia)",
    "path": [
      "Expats",
      "Expats (Estonia)"
    ],
    "audience_size": 1000
  },
  {
    "id": "6023287459983",
    "name": "Expats (Norway)",
    "description": "Expats (Norway)",
    "path": [
      "Expats",
      "Expats (Norway)"
    ],
    "audience_size": 1000
  },
  {
    "id": "6023287455983",
    "name": "Expats (Denmark)",
    "description": "Expats (Denmark)",
    "path": [
      "Expats",
      "Expats (Denmark)"
    ],
    "audience_size": 1000
  },
  {
    "id": "6023287438783",
    "name": "Expats (Czech Republic)",
    "description": "Expats (Czech Republic)",
    "path": [
      "Expats",
      "Expats (Czech Republic)"
    ],
    "audience_size": 1800
  },
  {
    "id": "6023287397383",
    "name": "Expats (Sweden)",
    "description": "Expats (Sweden)",
    "path": [
      "Expats",
      "Expats (Sweden)"
    ],
    "audience_size": 1400
  },
  {
    "id": "6023287393783",
    "name": "Expats (Netherlands)",
    "description": "Expats (Netherlands)",
    "path": [
      "Expats",
      "Expats (Netherlands)"
    ],
    "audience_size": 2600
  },
  {
    "id": "6023356562783",
    "name": "Expats (Bangladesh)",
    "description": "Expats (Bangladesh)",
    "path": [
      "Expats",
      "Expats (Bangladesh)"
    ],
    "audience_size": 4400
  },
  {
    "id": "6023356926183",
    "name": "Expats (Tanzania)",
    "description": "Expats (Tanzania)",
    "path": [
      "Expats",
      "Expats (Tanzania)"
    ],
    "audience_size": 1500
  },
  {
    "id": "6023356955383",
    "name": "Expats (Nepal)",
    "description": "Expats (Nepal)",
    "path": [
      "Expats",
      "Expats (Nepal)"
    ],
    "audience_size": 1000
  },
  {
    "id": "6023356956983",
    "name": "Expats (Jamaica)",
    "description": "Expats (Jamaica)",
    "path": [
      "Expats",
      "Expats (Jamaica)"
    ],
    "audience_size": 1000
  },
  {
    "id": "6023356966183",
    "name": "Expats (Thailand)",
    "description": "Expats (Thailand)",
    "path": [
      "Expats",
      "Expats (Thailand)"
    ],
    "audience_size": 2200
  },
  {
    "id": "6023356986383",
    "name": "Expats (Sierra Leone)",
    "description": "Expats (Sierra Leone)",
    "path": [
      "Expats",
      "Expats (Sierra Leone)"
    ],
    "audience_size": 1000
  },
  {
    "id": "6023357000583",
    "name": "Expats (Senegal)",
    "description": "Expats (Senegal)",
    "path": [
      "Expats",
      "Expats (Senegal)"
    ],
    "audience_size": 1000
  },
  {
    "id": "6023422105983",
    "name": "Expats (Ivory Coast)",
    "description": "Expats (Ivory Coast)",
    "path": [
      "Expats",
      "Expats (Ivory Coast)"
    ],
    "audience_size": 1000
  },
  {
    "id": "6023516315983",
    "name": "Expats (Sri Lanka)",
    "description": "Expats (Sri Lanka)",
    "path": [
      "Expats",
      "Expats (Sri Lanka)"
    ],
    "audience_size": 1200
  },
  {
    "id": "6023516338783",
    "name": "Expats (Morocco)",
    "description": "Expats (Morocco)",
    "path": [
      "Expats",
      "Expats (Morocco)"
    ],
    "audience_size": 7700
  },
  {
    "id": "6023516430783",
    "name": "Expats (UAE)",
    "description": "Expats (UAE)",
    "path": [
      "Expats",
      "Expats (UAE)"
    ],
    "audience_size": 4200
  },
  {
    "id": "6023516368383",
    "name": "Expats (New Zealand)",
    "description": "Expats (New Zealand)",
    "path": [
      "Expats",
      "Expats (New Zealand)"
    ],
    "audience_size": 1000
  },
  {
    "id": "6023516373983",
    "name": "Expats (Congo DRC)",
    "description": "Expats (Congo DRC)",
    "path": [
      "Expats",
      "Expats (Congo DRC)"
    ],
    "audience_size": 3800
  },
  {
    "id": "6023516403783",
    "name": "Expats (Singapore)",
    "description": "Expats (Singapore)",
    "path": [
      "Expats",
      "Expats (Singapore)"
    ],
    "audience_size": 1000
  },
  {
    "id": "6023620475783",
    "name": "Expats (United States)",
    "description": "Expats (United States)",
    "path": [
      "Expats",
      "Expats (United States)"
    ],
    "audience_size": 69000
  },
  {
    "id": "6023675997383",
    "name": "Expats (Austria)",
    "description": "Expats (Austria)",
    "path": [
      "Expats",
      "Expats (Austria)"
    ],
    "audience_size": 3300
  },
  {
    "id": "6023676002183",
    "name": "Expats (Cyprus)",
    "description": "Expats (Cyprus)",
    "path": [
      "Expats",
      "Expats (Cyprus)"
    ],
    "audience_size": 1000
  },
  {
    "id": "6068209522983",
    "name": "Expats (Finland)",
    "description": "Expats (Finland)",
    "path": [
      "Expats",
      "Expats (Finland)"
    ],
    "audience_size": 1000
  },
  {
    "id": "6023676017583",
    "name": "Expats (Greece)",
    "description": "Expats (Greece)",
    "path": [
      "Expats",
      "Expats (Greece)"
    ],
    "audience_size": 1000
  },
  {
    "id": "6023676022783",
    "name": "Expats (Hong Kong)",
    "description": "Expats (Hong Kong)",
    "path": [
      "Expats",
      "Expats (Hong Kong)"
    ],
    "audience_size": 1000
  },
  {
    "id": "6023676028783",
    "name": "Expats (Japan)",
    "description": "Expats (Japan)",
    "path": [
      "Expats",
      "Expats (Japan)"
    ],
    "audience_size": 2300
  },
  {
    "id": "6068613839383",
    "name": "Expats (Latvia)",
    "description": "Expats (Latvia)",
    "path": [
      "Expats",
      "Expats (Latvia)"
    ],
    "audience_size": 1000
  },
  {
    "id": "6023676039183",
    "name": "Expats (Lithuania)",
    "description": "Expats (Lithuania)",
    "path": [
      "Expats",
      "Expats (Lithuania)"
    ],
    "audience_size": 1000
  },
  {
    "id": "6023676044383",
    "name": "Expats (Luxembourg)",
    "description": "Expats (Luxembourg)",
    "path": [
      "Expats",
      "Expats (Luxembourg)"
    ],
    "audience_size": 1000
  },
  {
    "id": "6023676045583",
    "name": "Expats (Malta)",
    "description": "Expats (Malta)",
    "path": [
      "Expats",
      "Expats (Malta)"
    ],
    "audience_size": 1000
  },
  {
    "id": "6023676048183",
    "name": "Expats (Monaco)",
    "description": "Expats (Monaco)",
    "path": [
      "Expats",
      "Expats (Monaco)"
    ],
    "audience_size": 1000
  },
  {
    "id": "6023676055383",
    "name": "Expats (Slovakia)",
    "description": "Expats (Slovakia)",
    "path": [
      "Expats",
      "Expats (Slovakia)"
    ],
    "audience_size": 1500
  },
  {
    "id": "6023676060183",
    "name": "Expats (Slovenia)",
    "description": "Expats (Slovenia)",
    "path": [
      "Expats",
      "Expats (Slovenia)"
    ],
    "audience_size": 1000
  },
  {
    "id": "6023676072183",
    "name": "Expats (Mexico)",
    "description": "Expats (Mexico)",
    "path": [
      "Expats",
      "Expats (Mexico)"
    ],
    "audience_size": 10000
  },
  {
    "id": "6025000826583",
    "name": "Expats (Argentina)",
    "description": "Expats (Argentina)",
    "path": [
      "Expats",
      "Expats (Argentina)"
    ],
    "audience_size": 4800
  },
  {
    "id": "6025000823583",
    "name": "Expats (Israel)",
    "description": "Expats (Israel)",
    "path": [
      "Expats",
      "Expats (Israel)"
    ],
    "audience_size": 5200
  },
  {
    "id": "6025000815983",
    "name": "Expats (Russia)",
    "description": "Expats (Russia)",
    "path": [
      "Expats",
      "Expats (Russia)"
    ],
    "audience_size": 9100
  },
  {
    "id": "6025000813183",
    "name": "Expats (KSA)",
    "description": "Expats (KSA)",
    "path": [
      "Expats",
      "Expats (KSA)"
    ],
    "audience_size": 1000
  },
  {
    "id": "6025054896983",
    "name": "Expats (Chile)",
    "description": "Expats (Chile)",
    "path": [
      "Expats",
      "Expats (Chile)"
    ],
    "audience_size": 1100
  },
  {
    "id": "6025670492783",
    "name": "Expats (Rwanda)",
    "description": "Expats (Rwanda)",
    "path": [
      "Expats",
      "Expats (Rwanda)"
    ],
    "audience_size": 1000
  },
  {
    "id": "6026404871583",
    "name": "Expats (Venezuela)",
    "description": "Expats (Venezuela)",
    "path": [
      "Expats",
      "Expats (Venezuela)"
    ],
    "audience_size": 2100
  },
  {
    "id": "6027147160983",
    "name": "Expats (Malaysia)",
    "description": "Expats (Malaysia)",
    "path": [
      "Expats",
      "Expats (Malaysia)"
    ],
    "audience_size": 1200
  },
  {
    "id": "6027148962983",
    "name": "Expats (Romania)",
    "description": "Expats (Romania)",
    "path": [
      "Expats",
      "Expats (Romania)"
    ],
    "audience_size": 4600
  },
  {
    "id": "6027148973583",
    "name": "Expats (South Korea)",
    "description": "Expats (South Korea)",
    "path": [
      "Expats",
      "Expats (South Korea)"
    ],
    "audience_size": 4100
  },
  {
    "id": "6027149004983",
    "name": "Expats (Serbia)",
    "description": "Expats (Serbia)",
    "path": [
      "Expats",
      "Expats (Serbia)"
    ],
    "audience_size": 34000
  },
  {
    "id": "6027149006383",
    "name": "Expats (Vietnam)",
    "description": "Expats (Vietnam)",
    "path": [
      "Expats",
      "Expats (Vietnam)"
    ],
    "audience_size": 4100
  },
  {
    "id": "6027149008183",
    "name": "Expats (Peru)",
    "description": "Expats (Peru)",
    "path": [
      "Expats",
      "Expats (Peru)"
    ],
    "audience_size": 1900
  },
  {
    "id": "6043702804583",
    "name": "Expats (Belgium)",
    "description": "Expats (Belgium)",
    "path": [
      "Expats",
      "Expats (Belgium)"
    ],
    "audience_size": 2500
  },
  {
    "id": "6047219032183",
    "name": "Expats (Zambia)",
    "description": "Expats (Zambia)",
    "path": [
      "Expats",
      "Expats (Zambia)"
    ],
    "audience_size": 1000
  },
  {
    "id": "6059793664583",
    "name": "Expats (Honduras)",
    "description": "Expats (Honduras)",
    "path": [
      "Expats",
      "Expats (Honduras)"
    ],
    "audience_size": 1000
  },
  {
    "id": "6068844014183",
    "name": "Expats (Lebanon)",
    "description": "Expats (Lebanon)",
    "path": [
      "Expats",
      "Expats (Lebanon)"
    ],
    "audience_size": 2100
  },
  {
    "id": "6068843912183",
    "name": "Expats (Jordan)",
    "description": "Expats (Jordan)",
    "path": [
      "Expats",
      "Expats (Jordan)"
    ],
    "audience_size": 1800
  },
  {
    "id": "6071248932383",
    "name": "Expats (Algeria)",
    "description": "Expats (Algeria)",
    "path": [
      "Expats",
      "Expats (Algeria)"
    ],
    "audience_size": 5000
  },
  {
    "id": "6071248894383",
    "name": "Expats (Nicaragua)",
    "description": "Expats (Nicaragua)",
    "path": [
      "Expats",
      "Expats (Nicaragua)"
    ],
    "audience_size": 1000
  },
  {
    "id": "6071248981583",
    "name": "Expats (Kuwait)",
    "description": "Expats (Kuwait)",
    "path": [
      "Expats",
      "Expats (Kuwait)"
    ],
    "audience_size": 1000
  },
  {
    "id": "6071249058983",
    "name": "Expats (Qatar)",
    "description": "Expats (Qatar)",
    "path": [
      "Expats",
      "Expats (Qatar)"
    ],
    "audience_size": 1000
  }
]